{"hash":"9c2077f4d0d949a7dcfadbcbfbc7fde8ef4fb54d","data":{"membership":{"title":"aci","path":"/people/memberships/aci/","belongsTo":{"totalCount":32,"pageInfo":{"totalPages":4,"currentPage":4},"edges":[{"node":{"path":"/people/sergey_ivliev/","content":"<h1 id=\"sergey-ivliev\"><a href=\"#sergey-ivliev\" aria-hidden=\"true\"><span class=\"icon icon-link\"></span></a>Sergey Ivliev</h1>\n<BR>\n<iframe src=\"https://player.vimeo.com/video/434682048\" width=\"800\" height=\"450\" frameborder=\"0\" allow=\"autoplay; fullscreen\" allowfullscreen></iframe>\n<BR>\n","name":"Sergey Ivliev","rank":4,"memberships":[{"id":"aci","title":"aci","path":"/people/memberships/aci/"}],"bio":"I believe that the majority of people are conscious & kind, and if we join sync we can have an impact on a planetary scale with the help of ‘modern magic’ engineering. I did my PhD degree in financial mathematics at Perm State University (Russia). Being disappointed with the unsustainable and inefficient financial systems we have founded Lykke, Swiss FinTech startup, which has pioneered many cryptofinance solutions like first security token offering, first natural capital-backed token, first non-custodial DEX on Bitcoin blockchain. This journey empowered us to start Vlinder, which aims to radically simplify impact investing and scale citizens actions to solve Earth’s global problems like deforestation, inequality, pollution.","excerpt":"Founding Partner at Vlinder","linkedin":"https://www.linkedin.com/in/ivliev/","websites":"http://vlinder.app","countries":["Russia","Austria"],"cities":["Perm","Salzburgn"],"private":0,"image":{"type":"image","mimeType":"image/png","src":"/assets/static/sergey_ivliev.36a08ae.3791b1878d56307995af932346dc43b1.png","size":{"width":640,"height":640},"sizes":"(max-width: 640px) 100vw, 640px","srcset":["/assets/static/sergey_ivliev.36a08ae.3791b1878d56307995af932346dc43b1.png 640w"],"dataUri":"data:image/svg+xml,%3csvg fill='none' viewBox='0 0 640 640' xmlns='http://www.w3.org/2000/svg' xmlns:xlink='http://www.w3.org/1999/xlink'%3e%3cdefs%3e%3cfilter id='__svg-blur-2da348d42740d0e0bf13704b4973f7f5'%3e%3cfeGaussianBlur in='SourceGraphic' stdDeviation='40'/%3e%3c/filter%3e%3c/defs%3e%3cimage x='0' y='0' filter='url(%23__svg-blur-2da348d42740d0e0bf13704b4973f7f5)' width='640' height='640' xlink:href='data:image/png%3bbase64%2ciVBORw0KGgoAAAANSUhEUgAAAEAAAABACAYAAACqaXHeAAAACXBIWXMAAAsTAAALEwEAmpwYAAAgAElEQVR42p1791cU2do161133Rl1DAhIDhIUc46oiAlQMWMYs4CKooIIKCqMigqIoKDknHOQJNB0A01OYhon6Mzc0dEJ7/c37O85p7q6CwT1vj88q6q7q%2bucvZ/9pGrQqq5rwXBWU6/8hLWqz2sbWtXHz5n6%2b3Rer%2bhErawNpY8ayOqRkJiOu5ExSM0ooPWVqGtsR0NTFx7TNdK11Ovx%2b7Txe420x2pu7PuCVdfRtXVtqKL3K1Wm9eWglR9tZGRr05zT9ezeDEhjcw8Urf0oqXiMe9Gx2LtnDxbNm4t19qswZ6oNbC3MYLd4CQ7tPwi3o264Hx2PskqZel12j8FrtHEShjqhpkFFEHeUSEDrICKqRQI%2b52Gpl4cH3/YRaPVG6fqGpm7ICHh5ZQOSUrPh6%2bOHVUsWwUxfB%2ba6EzHPxhIzJ5thqokRppqawNrIADZk5pN0YG1qjI3rNyAjqxCPahTcGJnieo%2b5tQ/ZgwhWAFxb3646CsrjqlERUUWm9X/1NAM5srVyCcuau5FXUA7vM2dht3A%2bZllbwcbYgEDqY6alBZZMn4bF020xy2oyppmb0meGmEJEWNNxssEkWBjowWjCN1izaiWOHXFHUPANVD1upvu3D7OHdtX7IiHtEmtTg6%2bm18yq6JyZljqehihgREmrzocDzkCzz%2brlHaimjd64GozVi%2bbDXG8i5hDIVSR3%2bwXzsJrIWDVvNhbZ2pD3zTHNzIR73WKSLqwM9WGhrwfDiRNgRGYwYRx0x42Boc4ErF%2b7Fn5%2bl1BYUiN4X9ahsnaVCeRrCGgbYgIhNZwEIoC%2boyVK9UtiWpT2SODZsUHRRbHeDb%2bz57Bipi0HZDdnNrautsfG5cuxdtFC2M%2bfh7nWlrBl3qbPJ0/So3DQhQWZJYG30NOBIQE3phDRp%2bOEMV9Db/xYTCairMxM4X/hEvILK7mj6ho7Ofi6Rs0eRKv9SBGkBHqPWbXKtEYC/ymwImCp8ffI86UVtfBydyegc7FmwXysW7IQm1csx2a75XBcvBBrSQFLSfrTjIxgqUceJ/A2BvqwJO/bkvSt6bWFzkSS/jjojR0jqEB7HLTHjMbYr/%2bNSePHYeHsmbgREsaryOC9dAzeU2O7RB2DgVerXmt9LPdPEzAUuBo8HWvqmuF7xgsOBNJp%2bTK4rLSD89IFcFq8AJuWLoLD7OlYOsUSc8yNYUHATAikha4OkWGIuZQDlk6xwfzJFphB5NjoT4KptjbMJ2pzUsxJFRPHfkMkfAVLSpY3b0VwjzZQOdWA7xiyNwoPidWorFYmWDWda31JgpOCHIkAlukzMwuwy3E91i5cQCTMxSLK8IunWmE1AV8zazqc5s2Cw/QpsKf3Vk2zwRIKg1Wkhg3z52PL4sXYtnQJnOfPxXIrS8w3N8F0Cg9bfV0iQIfUogMj7fEYN%2bpr6JIK7JYtha9vAIpKa4cFLgVfy3IThUqNnJ2z9zp57mAkaH0eePuIwFmyY8aulbf04s7tcDhQ0ltEoOZYWWDV7BnYSp733OyIoIN7EeHpgRjv00i66Ifcm9eRfeM6iu5GIP7yZdz0cEPocXdEn/VCyLEj8NqyCTvou%2btm2GIRlUkbChGD8UIojP73v6D9zSgsWbAAITfvqPcq7oeFIt87B0wKkXVyQmp5WGjUUNs4AgFDpT0ccHbDetVC9XTe0NQJX6%2bzWEobnkvlbrHtFGyzW0JgfdGaGounJdn4qaYUv9Y9wpv6GryR1eF9Rxv%2b3/On%2bNDXje8fV%2bFlZRl%2bfFSC7x8V40lpAWpiohB77jQCXLdj0/zZnASd0aMwgVSgTYnRxtwcF/wuqivPUOME8D12qnMCA10rV6lCLiHgUzEuApWyLDX2PuvwQq7fxEKKY7sZ07Bqzkzc8fHCi/I8/EzAX9eV4zdFDd62NuJtWxPed7bh795u/N3fi78HyJ704EN3O35vluHX%2bir8R1aDXx5X4Gl%2bBhpjIhDjdQJu69fwfDF%2bFJEwejR0KCesc3BAQXEVZNQ2M8%2bzFnvQ3iSKqJWLRgqQd3IVaH0KvAZgxzDgO3kCEpNQS8cAggOvYjnJ33HpYpx03YmahBi8qMjH69oyAlSJt8oG/NHejD%2b7O/DPk178b18P/ukXwP/Z24kPXW34o0WGt/LH%2bL2%2bEq9JCS8LsvAkMxGN9%2b8gK9Af7k6OMBg3lkrjaLJRWEAVITY%2bDbKWHs3eFLRflbFzkYjHdF5L%2b30s71SHh9bnYn44jzeoWBaP7Lrm9gFcPE9t7uxZ2OvsCN/D%2b1ERHY7vSfq/1lfgraIW71sV%2bNChxF99XfibZM/sn/4eOnYRKe38sz9IHe%2ba6vEf8v7rymK8KszE06wkdCTcQ33kLUScOo4lU6ZgIoHX/uZrzJs5Aw/j0tBIOUjcE98Xc4yiQ3UkwNSfCNapUgXhk6sI%2bFySk95YCl76urn9CQKoz19JBBzYvAmXPY6gODIEL8tz8Bt5/4%2bWerxXyghkC0mfCOjq4PYXqeFDTwcH/6FNjj9YiBABv9aU401pHn7IT8dARjy6kqPReO82Yr3PYN%2bGDdQtTsK40f/GtCnWNEEW8iTcoJAQ0KQyBr6pUw1eMDE/EAGfAj2I0SGgh5qitQ/nKQk629nhzIH9CPU5hYK71/G8LIsUUIb3LXX40CrDn20K/NXZStaOf4gAZn8SAX8SMe%2bVjfijuQHvGqrxK3n/dXE2XuUlYyAzDr2pMai/ewPR507h%2bI6dWDzNljdKFjRbZGQXoYly0KA9NmmOdRITiOhQWRdTwMeJbjjvS2/OEs5QBTQRAZcu%2bGP7urXwPXYI4T6eKAi/hmdF6XhTU4R38hp8IHB/tTbh7w4igCrA3x1EQidTQptAAOWHP5qIgLpK/MYIKM3hBDzLikdPYiQqrgcg9KQ73Ldv5/MEa45MqU94GJ/CcxDbB9ubaBo1UIJs7pKQ0KFSgoSAz8n%2bU8aubWE5wNcfm1etwKk9OxB6xh2yxHt4QSDe1JbifRN5v7WZgLfjrx6K/%2b5O/NXViX96e%2bl1J%2bWANkqCrRQCCryVVfMQ%2bKkkFy9zkoiAOChjbqHwynkEHz2E/RudaaiaD1Masmypc8zJL0dzWz9kzDk0hwwigax%2biAqkatCSen%2bQ/IeAHOr1oUwzD/ie9cY6aoTctm1CytUL6MtNxtOiTLyqKsaP1VT/GxvJqMzJ5RQKLAxI%2blQK/6Sc8IGqwPuudrxTKngosOObx5V4VZyLZ5kJaIwIRl6gNwIO7MGeDeuxhoYqC/L%2bnOnTUV7VCIWyl%2b%2bFDWKNEhIayPP1zRoFNDRJ8gOZ1kgxP5JJgQ8lwN/7Ahzmz4EXKaA2OgzdJF1ZXASygi8h9col3DrugQu7tiPwW1dkB19Bd0YKNUXVeEdef0cK%2baGyBIq4aBSF3kBeWAiqH96HMjkRbYmxqLl9DbkXfXD7%2bBFss7ejIWsJppoaY/WqVdzrciqDInjRGpi1dKtJYCYoQhMOnyVABDgItIph9UL0eWvnM1zxv0QT4FwEnXRDe0Yc5PFRuH/2BBL9/VAedgult0MQf/YkLm51QuC2jSi86of%2bzCT8VFGI51TrS64Fwn%2bHC/YuWYCdSxfipMsmhJ08joc%2b55Dqfx7JPmfwgL6/034FVlIIzKaZ4ejhY2jrfj5oP2oVtAgEyIYhQkLAyBl%2bOG8PuxBZa/cLREZEYz2Nv7GX/fGkIAO51y4hKcAH5bevI%2bm8F8JPncalvbsRQLOB/4bVCN%2b7DX2Z8XhH3V9/ygNc3b4R%2b5fMhbejA2IJaF3CA1RFR%2bKW21Gco9ngptthmifccchpPZbNmY0ZFubw97uEzr7v%2bb7UKqAjOxcJaGwRyOBESEkg0xrJ61JPfwp8I8WevE6OpxWlaC4spB7AEfnhNyn%2bU1F8Oxgxp4/BiwDt27AR9ivs8e3OPYi7dAWpBLAwmPJEWgz%2bVsrRlxSNc04O8HFcg5ADe3HN6xyV00O44XYQqQEX4LdrBx%2bQgo8chMeWzbCbOwczKQGG3AxDh4QAqbHukHteqTpKTCRB65Pgh4JVscuOchp/G%2bm65q7nyA29jTs7HNFDQ090wHkU3bmJp8WZaEm8iwwfmgApJLKDQ3CXymRuWDjaUxIxQDV%2bII%2bOqdF4R21vG%2bWM%2bLPHUUXkNWVkICoiBnYrHLBh%2bQrsX2kHn%2b0uOLNjKy4ROT779mDlvLmYSSGQkJKD9t7v%2bZ5YImTGCSDQjcxaBJOpFNEoEsBJ6NYQ8CVSb1QlG43RolT%2bamJjkXb8EOoibpF3LyA/9DveAb4sS8czAtmXlYCOxAfUzCSgNz0BT3JT8ENRFvrj7%2bIFJcpfqF1W3A4isjzRnkWNT34WZLEP8PDiZUT7%2bMJroyM8HVcj6NA%2bhLgfRuDhA1g2ezZ2OTuhOo%2b6wMY2NFEZFAlg1qgiQP4RCYPVoCUFr4nprkFgPwYumIJ9puxDb1U1nqVRs5ISh7ATR5FLGXuAGqDXdSX4tbESb%2boq8FtjDX6VVdGEV45fKorwkmK%2b5yHNCjmp%2bJVaXkVYMFK83FF7I5BPgH256TQAhaP0%2bmVkUE6J83JD6gVPPPT25ASsW7oEAd/uwdWtjogODuY5iO1HSoBsGGPhIGvRJEitL/O0BLREZnwhakF76%2brxY1E2Wu6F4vqe7ci%2beRU91AO8pgbodzYCE/i31N7%2bXlOB36tK8R8C3B93F92xkfiZzt9UFKM3/h5Szp1EwXlPPEt9iBcleXhGRD0pzEZbahyaqKLUhBNJfmdxesc2bF65HG4b1mK9qQFunfelPPCKwlISBtSZNrb28hwl42ro5WpQk9EikKH1JeCl0pJaE1%2boH0pZC14SiCcZiUikspdLIdBNHdwPNAr/UlVCwMvwtroU72or8J66vN/K89GXGIP%2b5IfU8DThAw1EfSmxeHjKHZlnPDAQF4VXuWl4VZpP9yjCCyK3lwitplkgkqrAQScnOC9eCE/nDbjo4oyyghIoKRcpCBBrydUEtKlIEE1FhtS0PgVenVBGIEFcTEHx11xOrSttNPtKAFKDLqKH6vrzgkz8kJdOgAvxlmr9b2V5HPxT8mj6aTdcpl6g9EYQ5DTrX3HdioDtm5HtewoDiffxc0EWfi5mswCFQ3oi2pNjUErEXjn4LVzXOmDTvDm4SmqL8/fl%2bxBNQaDZYMZMVIE6LOhc1qohgb3Wkmb3T0l9OODCor1o7niKhtpGdKUnoSgiDMlXA9Aafx/9qfF4SaPs68J0/FKQhtdZifglLxUvsxNxh3qAM%2btXw5P6gb2L5mARTXVrLcwQum8HnqbF4sd8ur4wEy%2byU9CV9BCyqDCkXjwPrx1bsHPtang4rsXdc6dRXlQOJTVhTI1NbQIBTSoCGEC5ykQC%2bGuJErQ%2bFfMjSV8DXjA2iCgoobRkpVGZu4mE4MuQ3QtDF8X4U/LcK8r0P6bH4tf8VLyjkPiN1NByPwwZFM%2bRZ07Bf68rzmx2gh9ZoschDFC8/8gqBdnzrCS0xtxF2fVA3DvtDrdNTti2ehW8NzmiJCUNrT0vOfhmCsVBBLSJKujloTCIEKUmLLRYXfxS0MMBb6abN7PXNAu0PqpEPGXsOxe88Sj0GjoeRKA/4T6eUZPzfSqVwYRIKGioKbh0FmGHduPCFkd8d3APwqm/99vmhPDDeyALuYyndN0PRNjThHvojIlAzc0gZPmfQzhVGA%2bK%2bX3k/at7d6E8O59n/ybJvtiepHuUt2o8z0G3Sc6FEBgS85%2bIdemNNQQIxuqwsr0fKQ/iEHr%2bDEpp0y1Roeh%2bGIUXaTQX3PkOcScOINptNxJOHUbiyaNI8vRA3KkTeOB1AlddN%2bPUuuUI2b8dmRdOoTniGrpjQvGYymC27zkknjuFa9QHHHVej4OkgvP7duPRo3pB/kP2Jc0HzPvytmES4nAK%2bFTMD8eweC4eW2koKSuvRaDbISRSU9MQHkIdXjgGUqKp9XXDNdctuL17FzJPeKLUyxsVp89BFhiEwtMUCrt24dxae5xYtwrnXdYh4theyEKDUBF8EfFexxFD5rd7J80BG3gSvOl3EUpSHZP90H0MUoCKACExDkOARv7DZ/yR2P1IAYyAzqcor6jFkU1Unna5IIfGVxa7rdTmJp88iFrK4t/nUFaPobB4GI8XqVnoiYpF07UwlJz0wZ0tu3HG3gFBu10QsMMZuedPoSjwAqI8DiOUOkAf113YsdoevjQnsLBjzyGH28cgFajCQEyEUvnzJPipxDeS9EciQEkE1NY3YZvDCritX4Wwo98izucUKr7zQ1XQebymsvZLWT6epFNI3A1BEY3D%2bf7eqLl2GdWBF5HsfgxFNEtUfOePa3u2IJ76grhTx3HjyAFcPbQfxyn%2bNyxbjIexyejqf8XrPl9fspeP9qkUPC%2bX2IgEfEniGwp8qCk7nsB9/z5sWjgLZ7Y44e6JI8iimG59EIafS3LwE9nP1A/II0N4IgyksAg/shep1AAxubdS3miKuI57Ht/i2gFXBOzcDr%2bdO3CeKsUWuyWwoyGooJiGJ2p8%2bF6koTico5QqJyr7PiJhEAFfAvxzBLDvdFFLei8yGnazpuEQjbZXDu6mGf4YaiJvYYBG5DePivBWUYfnJbnICvDGbQKZTv19B%2bWKfsr%2bbUQUU8CVPS7wcFqLY%2bsdsHvFUuyjnmG%2btSU8j58k8M8%2bK31NCPRKukMhyfMyqJQQ8KWe/5z3eRhQYnrc0IoDu3fDZeVSnNy5BZeOHUQo1fCim1fQm52E1/VVGCgtRM2dEGRcOMMfd/VTpehOjEbVrWDE0zzgtc0ZW5ctgtP8WVg%2b1RrzrSywdP4clFbU8SdAbH%2bfBy8mQA0mEbzYDGnxDvATBPy3RHAV9P%2bA8JuhsF8wB7vWrsIuygmeu7bh9unjyA25SjP/DaRSXY8j2cfSAPTgtAfSCHQGJc0obyp31O8foUZnw4L5mGVmwv9qxERnAjxPnOTgm1Tgh%2b7lY/n3qjP/IOm3si6QEdBH06BqZv5vCRiJBNYas%2bYkNy6ehpZ1cLJfhS0ODji0ZTMuU81PCLmOmyfdcPFbV/jt2oob1Pywh6SX9rvCf98unGFd4YFvscdxPexmz4KZrg7MJunyP6K6H/WAP/5iY%2b9QwCNVAGkCVIhdoOpZgYwqn5asRfXg4HMDzxdXg17enJQkJyLU8yi2rluDzUTAHmcnBJ49i2vnfXB6pwsO0wzg5ugAr63OOL7FGe7bNsFt60Zsd1iFratXwnXDeiywnQoD7fGYbKiPpbZTEPcgER2936uz/6ekr475Vk1zJ1eNxJoHJN2qEGj5cgI%2b1xvw4YgIKE1LQXqQL4KPH8Vual52OTvjqKsr9m10ImnPhv0MazgvmIltyxdh8%2bJ5cKHj2oXzMG%2bKDRbPmI5l5H1LfX2Yk/cX21rDZekCJMUnqwkY3tuarK95MCLEunQAkkmeEwoK%2bC9J%2bLQqBAIqMtJRcCsQqd8FIuDIfqxbOBcLbW2wct5szJtsglnG%2bphjZohltlZYPcuW5D4Dc2ysMdXUFLamJrAxNsJ0EyP6bBr2U4d4hKpASkIK2mn4Yfsc6gyFpNkZ1PCID0RUj8Ma1Y/FmKlC4Et7gS%2bpFMw7LR3P8SgzAxV3b6DkXjjir/rDi%2bZ9R/L0sulTODArPT3YGhlQkjPGLIrvaWamsDYyhIXeREw1nkRZ3xTr5s6gUFkDb0qgni6OSE1KQ5uKAPXaqocf8mFGX/UzQaWQ9NhP6BoCejkJQhKUkqCSzefACq8//ow9KG3peIbqvDxUR4WglkbbfMr6UT5e8N6zAwdpknNZQQ3NDFvMsSDghpOIDB1YTdLBTBMDLLI2h8NsW7gsW8AHn4B9rgg%2btBc%2bOzYhlRTQRgmWEyCJdcH7fZpRV5Xo1M80JSrXeL8H9c2qMii9QEwUmhv3jlgmFUMIYN9vof6cPabOS4xHHTU1TVTfax7cRR6Vv0jv0whyO4zLZFc8jsHnwD4c2ewEV4eV2Gm/HLvsl2EvlcwDGxzgsWUjLh/ch3CPI4igbtLP1QWpLAdQo9Ug7%2bB7FDO7Qix5Smm9F8ELD0DlLd1D5E8EcAVIYkMuOSpaNFIadOPWj4ErVODZcMIW2uSyE247XKDMiEVLejyaU2JRG30HOTeuIMrXm5qik4g8fxYJQYGIvOCNgMPf4qzrdnjt3MqPF8jrN2j4uU/NU9zZk3hIvcKVfTtw4cRx7tmeJz/yhqtR9YhbrtR0eGqvqyTP8Sk1j8OFJ8IMPIVAMyegW/WDgeSxsXLwhDioixIbC8mD0UbVJlhpWu3ghAlfj0Lc5fOQp8SgNTMRnTnpUKYloPZBJIoibiHt2lXcOXca4V6euOd9BiGeHlQt3HCd7Dad36FGKJYao7RLPsi45IsUappCPQ7iCJVNB4d1CAwKQXFZLYXDM3Swoai9X/jhs0X6aI%2bB7yM8vSrQQsxrfiLrFUKAS6NZkEqjhK1hnw%2bKv7aIDxjZd5q6%2bRTYPfADLl2%2bgbFfjcF3NMjIU%2b%2bjMS0WbTkp6CnIQVd%2bBloyktEQdw%2b1cdEoi7mH9GtB/KFmwmV/JJIa4i/6IsnvHNIDfZH73SXkUwUpuH4ZWTQ13vM6hqDDuzFJWw9jxmjDwtwKzhu349rNCFTLlGinBknZ81xwIv%2bto1sgQAWcH5t7hV%2bMm7s5eFUO6Fb/ZDS0JA73Q4hC8gMka0s7el8ip/AR9uw9DF0dYxyjjq8z5wHkmXFozU1BZ2E2uoty0UujcBcdW3PS0EREKNJToEiOw2Mi41F0JEoiQlEQEoTC61dQevs6ysJCUEIzQjHNBjk0JWaQooKP7IO%2brhEm6ZlAZ6IBviEixo6diGnT5%2bKo%2byk8TMzgP3930p5ayCkNREAdEcGMgWV/zdqgAi6%2bryXKn/3WJ5MkxKFE8J/B2Y8odN7R84Ji8CmS0/Ow/6A7rKymwcjADLq6xtTFOaC7MBU9ZbnootG3p6wQ3aUFREAe%2bsqL0U3HrvxstGVnojk1AQrKD/WJD1EdHYHKyFA8oorx%2bP4d1FD5LKNhiVk%2bDVEVNCKf2O5C3p8IfT1jIsEYhrSm/iQTaE%2bYRGRMgB6Rs2jxSpz1uYis3FL%2bq1U7zSUtNDozBdQpugYRwhXQIPGoqARpq8jkxAhgSYf14ewRVFRMIjZu2g5jI3Noj9ejowXMzKxhZmqDceN0cd3HGz/SyNtF4Pury9FbVoyugmz0FBeQ5aO3MIeT0JqbQQkyDnIioCH%2bPlWNSDTERqExPhq1MUTIvTA8IquMDiUirmPB9FnkcV0O2kDflBOgxxWhIkNPIGPCeF0KEWusWbcRp70DEJuczX8IbaPqJG97wv9OkJGhJkCmzo4CAfyn46ZOnuGZxFn8Z%2bWVIfhaON10E/T1TWgRPRjqm8HEeLJgRpawMJuCSbQ5C1MryPJy8LyhFv21lRgg6yokzxflo7u8CN0lBejMy6RwoOSYkYQmUoEs6QFksffpPA6NdF4TfZfKZxSqiZiOvDRcdD%2bKMaO1OVhmRobmnHiRAHbU1THk5BgbTeYETSQyxo3VgbGxBZbZrcapM5RbiqvRwnoJIoL/pWiD5K8o6lV/PtLcOYBWSijsf3SuBIfCYY0zLCym8LjTJWOAdXUN%2bSLiRth7piaW3MZ%2bo4MDO3fjTWcrBhpq8IyI6KsoIfmTAipKKSyK0VmQS8Ay0Z5LJGSloCUtkYeEMjMVsuRY1BAZ9TRQdRTmoiIpAdaTp/L1macNDcxpXQu%2bNgMtkiKSIe5LPLK9jf1GG6O%2bHgtzUsb%2bQx7ILaqCkojQ4hmR/fEQkcCSmpLAZ%2bSV4sixU5gxfR5fgBlbWATJFuEKoPfYAiIJZqbW/MjeZ8xf87uIP57243uFDH2V5egqLkQvEdFbVsSth5TQW5RHR8oTVCnaKUG2ESkyAl6fnIAOIqyzvBRrVtjT/XRJZRbqNdk6UgIYWCkB7HOmBnY9e62trc%2bdxmzceB1YWtrCNyBI%2bHmcPWJipe3eg2Rs37EX5mY2PJbYzdiNRFDiOfuMecPIQLMRZowARpK4MUbSpXPn8bqnG%2b%2be9OHF4xo8rarAwKNS9JUWcesvoSOFRw95mimki6w5IxXPqh%2bhu7ICWx0387LH8o2wh8lq77O1GGhmYkJk5%2bzIPhPJYjhE9bD3DejIMEycqA%2btVmomomKSYG%2b/gV/ALmRZlnmafVmQnJn6Zuw4nrw7SbUou6FIgqmxJZFgRd%2b14q/Zvb766hs42NkjJeo%2bXirkeN/ViQ%2b93Xgtb8CLijI8JQIGigrwtLIMr5UK/N7ejDekmMqMDNgvW4nRoyao7i%2bQz%2b4tepjtkRGtJoDe5wrgeUC43pgTIBDD9sbI0dE24Ney72id9PIVsindyMRYuKmYYY0lkhONfcYIYEdxI8x4vNG1jAQLc1uY0H0MeWk0wqh/jyUg4zFz6kycOHAEcbdCUZ%2bdheekiNcN9fhJVo9XTXK0V1ciPvQ29m7dwfcz6uvx6vxiYmzFQ4DdV/TwRwSoFCAmSVNTwRF6VJ7ZdYw8nYlCyBgaCnlES0wU7GLRkyIgUc7SuGOLjB%2bno44tlmFNTFRyM9DkAnPzqVQabehz4TO2Ada4/Ot/RuHrr8aRggwxheLQfskKrFiwBFMtp8CI7j3663H417/GkET11TJnnhMkLYQZu5%2bYcEUCxD1Lq4SZmRX09IwwkeJfh64zMpzMCWDeF/BaQstMxZLItHgU3%2bOkMDUwCdL7QgLUVRMjSlFDlPDanHoCCyKBGU%2bOxqrYNRBikm1q7DcTiYyx5OlxGEsNDuspWJUxUCUvgQBL3l/oTzLlAMQQGI4Adj1zEDPuVCJAlwhgoHV0DHgo6HKlW8KE9sSI0JKClxqXv5HgAbZp0RNsMe0JeoNyg5QAUZp8EUYEqWCyhS3ZVDqfyqVsxNWjyitiiBmYq8NKTHYMLDN2L10dIzq35ntgnzNS2To8CeoJtV8MWZ79mQLMiThahxEuDRUzuo8evccZaSUAAADPSURBVKcmQApcZHaQCshzJipPs5sw7xkZafKC%2bnp9IQewTQvJ0JJvlC1oaiqowow%2bM%2bbrWGtyC8/wQkwK5E/mymHXmanIZQCkVUZQlo267JnwdYXPeVjze9jSfS248epADZwpDyEL/j0T2gsPATHGRDLMzaxVzKvUoMrAogJEyYnGr6cNGKo2IsiWAbZWE8HyhJiVBaKt1GSLlcNE5UVOGoFjRLB7i6WNnYt7mjx5GgcjyN2Mx7NAvKWKVNqXOctBVvw%2bPC%2boqggLJ2Fta/x/YkDlc6RVZFgAAAAASUVORK5CYII=' /%3e%3c/svg%3e"}}},{"node":{"path":"/people/vasily_gnuchev/","content":"<BR>\n<iframe src=\"https://player.vimeo.com/video/412681304\" width=\"800\" height=\"450\" frameborder=\"0\" allow=\"autoplay; fullscreen\" allowfullscreen></iframe>\n<BR>\n","name":"Vasily Gnuchev","rank":4,"memberships":[{"id":"aci","title":"aci","path":"/people/memberships/aci/"},{"id":"ambassadors","title":"ambassadors","path":"/people/memberships/ambassadors/"}],"bio":"I was born in 1980 in a family with a long history in art and science - music composers, painters, sculptors, scientists and architects are known in our family scince XVIIIth century. They came to Russian Empire from Italy, Germany, Switzerland. These were people inspired and devoted to their passion - architect Alberto Kavos, painters Zinaida Serebriakova and Alexander Benua, sculptor Yevgeny Lansere, scientist Vladimir Engelhard - are probably some of most famous among my ancestors. Enchanted by the beauty of art and always curious about science, I graduated from Moscow Architectural Institute and started my own architectural practice in 2003. Intrigued by the computer graphics possibilities, I always created imaginary worlds in CAD as an illustration for my clients. Since in 2010th I started to work more with IT and worked on smaller startup projects for online collaboration and project management. But the dream to build a museum was always there. And when I learned about VR and Unreal Engine 4 - I realised what I should do. There is a possibility to bring Fine Art and History to every home, every school class, to the most distant regions, now deprivated of cultural life, unable to participate in the global exchange of ideas and learn about history of art, experience it’s beauty. With Artheon VR Museum we can remove all borders, unite people in this global virtual Art space, allow collaboration and discussion between diffrent geography, even between different time and space. Join us in building it!","excerpt":"Founder at Artheon VR Museum born in 1980 in a family with a long history in art and science.","linkedin":"https://www.linkedin.com/in/gnuchev/","websites":"https://artheon.co/","countries":["Russia"],"cities":["Moscow"],"private":0,"image":{"type":"image","mimeType":"image/jpeg","src":"/assets/static/vasily_gnuchev.36a08ae.18bb8ade2419cced4c473dd0468315e7.jpg","size":{"width":640,"height":640},"sizes":"(max-width: 640px) 100vw, 640px","srcset":["/assets/static/vasily_gnuchev.36a08ae.18bb8ade2419cced4c473dd0468315e7.jpg 640w"],"dataUri":"data:image/svg+xml,%3csvg fill='none' viewBox='0 0 640 640' xmlns='http://www.w3.org/2000/svg' xmlns:xlink='http://www.w3.org/1999/xlink'%3e%3cdefs%3e%3cfilter id='__svg-blur-fb261486e2e164d9dc5cc1b32f226169'%3e%3cfeGaussianBlur in='SourceGraphic' stdDeviation='40'/%3e%3c/filter%3e%3c/defs%3e%3cimage x='0' y='0' filter='url(%23__svg-blur-fb261486e2e164d9dc5cc1b32f226169)' width='640' height='640' xlink:href='data:image/jpeg%3bbase64%2c/9j/2wBDAAYEBQYFBAYGBQYHBwYIChAKCgkJChQODwwQFxQYGBcUFhYaHSUfGhsjHBYWICwgIyYnKSopGR8tMC0oMCUoKSj/2wBDAQcHBwoIChMKChMoGhYaKCgoKCgoKCgoKCgoKCgoKCgoKCgoKCgoKCgoKCgoKCgoKCgoKCgoKCgoKCgoKCgoKCj/wAARCABAAEADASIAAhEBAxEB/8QAGwAAAgMBAQEAAAAAAAAAAAAABgcDBAUIAQL/xAA2EAACAQMCBAUBBQcFAAAAAAABAgMEBREAIQYSEzEUIkFRYXEHFUKh4SMyQ4GSwdEWM3OR8P/EABQBAQAAAAAAAAAAAAAAAAAAAAD/xAAUEQEAAAAAAAAAAAAAAAAAAAAA/9oADAMBAAIRAxEAPwDpGO8M3eHUgvEZ/B%2beqFPcLO0YEdVROPfrqc/nqxDUWt2IElGT/wAqn%2b%2bgvpXBv4Z/kdV6%2b%2b0NvA8bJ0iRkBu5HxqWKSgGSk0Ax7SLtpN8U2S68ZX6/Tx1ngrfRSmmV2ZiX5cHlUD8J7k/Qb6Bs0XFForZnipq2J5FxkcwGc%2b2e/8ALWo1QF7pJ/TrkWp4dvViqnkoJ5ZoVLO/TB8w%2bnxp/fZtezd%2bCrdUeLEsiL05C535x37/AFGgO/FKO8cn9OvpKiNvXH11iiZmzhgfodeK7/vYXl986DjuK9Mk1O7uxBndXTGMqHXbm7diR8a13uJhqYpnjUU%2bclOplio3749ttLtZWetQEkgz82M4ySR6aN5aWemukZrqGoZWcckbIR1QPwgH0Pb40BFc6220NO08Uk0hdg0cTHB5D75HfRdwfeprlwRPFaLrFbKtaxUkEg6hZCAF%2bgJyNvbStvFyrJponWxSwCOnSBITGZFXHf0yTt3O%2birghpaWnp6%2bktTo4YrW0auRNLGHBV40x3XvjO%2b/voC6peqo%2bK3ilvIkt6nlERQNz42Iz9dCVJd7LQ1bWeirWap6rFHDYhyzFuUsRudwPgjG%2boeMaynojXUdFUPFUszZqpUIWEN3I38zY9tKemt0i3KFqZ1nhEo5ZWJRxv3IJx%2begdviKpVaXPOroSiBwCpB39e51VhvEstU0JWPK/w84Y4GSTnbVe7VNO9iikpqqnWricRSQmAxSqpG3KNwwJ9t86yPvN6e1%2bOmkWSpY9NQ3mKKD7EbaCiOB6mB0mrqSodMoxbIUt5QQM%2bme%2btuupr7cbxbZfu6pWojIAMsqorb5HKT230VnLcqyOekBGdtx220yLxY1kqLRU06I3NIgb2AwDnQLqfh/j6SXmipaamhIyMyq5jHrlv%2b9YdxvNTQ1FFUpc5pkiilinWU/s/MpIchQNwQBt6HXSN5eGGzV8j4CpTSMTnGwQ64zvNwqbpR01tt7yywSqEaWVsl8EEsPXHz86AXu17r7vcGnmIeMHCR45VC/CjtratNBUVfIWp/DwDd8tkn8hrXsNghon61RyiSM4RZMHzbY29e%2bqHElzk5TTK3ThdxzOBy8wHYY/xoNpLtA1OIHLmNWA6gYqTg5wGG40WxcE2apsdvuVL1pY5w6nmlLYIPbv8AOlHJKzDmTAiB6cY9wO5/XTu%2bxKW4V1BRxCq5rZS1LCWJh5csCcY2znY%2bvbQWktNelTDTB0MjJkqHD9TG4C%2bxxkbk9vTV/wD1LxTSLzil69LEdi0Iwozjdh29talF4eBAKeGSFgSf2c7jY9xnJ1frXhrp4pJjOEjQp03IdMEexO/1OgHeI/tBuUtiro/A0ksUkDJ/uFXORjIXftn50mac8k9MORI/KeVYjsvb176NOK6O/cQVtXY%2bG5YnjtsBfmkAR5SgHMAcehIXv3yN8HC6pbjDWSmfqYKqFPOM7jA3H6aCW5XCeMuYKgZGcSSHzjOxx%2bug%2b4vUyI7yVCyE%2bYL/AH%2bNadxmZS8j7gnY%2b/0BwdUobdW10XUji6cDH95jjP8A750EtoqYZoFaRozKpPJE5wM%2b7fA9vXTU%2bza7miJoGZJhLItXGy5AWRQcD0JBHvpYwWlbZG7TMWlY8rqpPlOPjuP8a0OD3mj4kpBRvIpeTEiRnnymNyAfjJB0H//Z' /%3e%3c/svg%3e"}}}]}},"allMembership":{"edges":[{"node":{"id":"aci","title":"aci","path":"/people/memberships/aci/"}},{"node":{"id":"foundation","title":"foundation","path":"/people/memberships/foundation/"}},{"node":{"id":"tech","title":"tech","path":"/people/memberships/tech/"}}]}},"context":{}}