{"hash":"9c2077f4d0d949a7dcfadbcbfbc7fde8ef4fb54d","data":{"membership":{"title":"tech","path":"/people/memberships/tech/","belongsTo":{"totalCount":42,"pageInfo":{"totalPages":5,"currentPage":5},"edges":[{"node":{"path":"/people/waleed_hammam/","content":"\n","name":"Waleed Hammam","rank":1,"memberships":[{"id":"tech","title":"tech","path":"/people/memberships/tech/"}],"bio":"Threefold is the gate for our digital freedom that was never existed before, It gave me the chance to learn special technologies and has great people working there.","excerpt":"Waleed is a Software Engineer with great passion in Computer Science and new technologies.","linkedin":"https://www.linkedin.com/in/waleedhammam/","websites":"https://threefold.io/","countries":["Egypt"],"cities":["Cairo"],"private":0,"image":{"type":"image","mimeType":"image/jpeg","src":"/assets/static/waleed_hammam.39a2979.51e9705f2587e8b0c2e89d1569d2d3be.jpg","size":{"width":250,"height":250},"sizes":"(max-width: 250px) 100vw, 250px","srcset":["/assets/static/waleed_hammam.39a2979.51e9705f2587e8b0c2e89d1569d2d3be.jpg 250w"],"dataUri":"data:image/svg+xml,%3csvg fill='none' viewBox='0 0 250 250' xmlns='http://www.w3.org/2000/svg' xmlns:xlink='http://www.w3.org/1999/xlink'%3e%3cdefs%3e%3cfilter id='__svg-blur-7abe82e99eebeb0be4e3b2e94391a907'%3e%3cfeGaussianBlur in='SourceGraphic' stdDeviation='40'/%3e%3c/filter%3e%3c/defs%3e%3cimage x='0' y='0' filter='url(%23__svg-blur-7abe82e99eebeb0be4e3b2e94391a907)' width='250' height='250' xlink:href='data:image/jpeg%3bbase64%2c/9j/2wBDAAYEBQYFBAYGBQYHBwYIChAKCgkJChQODwwQFxQYGBcUFhYaHSUfGhsjHBYWICwgIyYnKSopGR8tMC0oMCUoKSj/2wBDAQcHBwoIChMKChMoGhYaKCgoKCgoKCgoKCgoKCgoKCgoKCgoKCgoKCgoKCgoKCgoKCgoKCgoKCgoKCgoKCgoKCj/wAARCABAAEADASIAAhEBAxEB/8QAGwAAAgMBAQEAAAAAAAAAAAAAAAgFBgcCBAH/xAAyEAABAwMBBgQFAwUAAAAAAAABAgMEAAURIQYSIjFBYQcTcYEIMlKR0RRRoRUzQkPB/8QAGQEAAgMBAAAAAAAAAAAAAAAAAgMAAQQF/8QAHhEBAAICAwEBAQAAAAAAAAAAAQACAxEEEiExIlH/2gAMAwEAAhEDEQA/AGpoooqSTw3y7QrHaZVzushEaFGQXHXVnRI/PTFZO/8AEBs67cUx7VGkSmUo8x15ZDYSOuBrmufivnMRvDIRVlSpUuWhthtP%2bRAJJx2H84pWLLszOLSJEh52MFD5EkpVjvVWSptYzFjbug3GctXxEWWffnIggPphIGS%2bTxeyetbTa7hGutvjzoDoejPoC21jqKSGy7HB1zy7UVNzT8iiSQo4OEn80znw7zjP8NY6lgh5qS8y7k5O%2bFa0NblnyHlxOM9mmUUUUcRCiiipJMY%2bKWzuT9ibbcGGFOrt1wbcWpPNDSspUceu7S93dy4tXvDCnVM7%2bPLG6E47aZ96dXay0C/bOXC2FwtGS0UBf0nmD9wKVfb23SLBcjCfZCpTKghamgVAnAII5EjFZ86ieTocIETfsqq27pG2hjzYz7jAThTS0LVoR2BA500fg/ZEWsX%2baw8lUa5Sm5KGkJwhBLSd4j1UT7AUs82RMfDXlKaWU8RDfCEDGqjode2aazwkhvRdhbcqUCHn0%2bcQfpJ4f4xQ4lbEPmVrWr/dy40UUVqnMhRRVY2l2zttlbwFiTJUOFppQPuT0qSwWWcnA1pW/GG6xb5tbNftKw62jda8wHRakDBIProD2qd2p2xvF9DjLshbMVYKTHZylJB6HqaojdodY0ZG%2b3nIBOCKTyK26%2bTdxKFbbsyNsMOVeLxHhOKWgrPGpz5cDn655U58VCW4zSGwAhKAkAcgAKV/Zy3yP6nFAbUnLick4xoc0xsGUlphDe/kpSOntSuPZ27NQ%2bbUQ07kxRUfGukd18slxIdBxjvUhWodznIn2RO1VwVbbJIfb/ukbiOxPWsIlNpW4r9%2bea2DxJcxZmm/qcz9kn81kC1YkJzyPCaVksj5NvGoNdzyrZSnnqfWviEDNdtrQqCZTiwlASVqP7AVHfrnX3t23Nh1GTxggkpAGo6a50OSMpIPa8b2h5PzLps5Lt0BsvyCsv5weAnA7VoUB9t9J3Sd0jANYkwxMlQnHkOOpUAcgrSrTA0xpjChp2NWnY64yBKbLjjra1FKiy7xJxrpvA45UbQ%2b7iVWT20SH4F9ZlJWfLUpDwKToSnhP/PvWk2eWJ1rjSR/sQCfXrVA2okqXbdx0JJSpKsp1B119CdPX2qzeHr/AJuzTDZOVNFST9yaGrq2oOQ3j7T/2Q==' /%3e%3c/svg%3e"}}},{"node":{"path":"/people/weynand_kuijpers/","content":"<BR>\n<iframe src=\"https://player.vimeo.com/video/414000468\" width=\"800\" height=\"450\" frameborder=\"0\" allow=\"autoplay; fullscreen\" allowfullscreen></iframe>\n<BR>\n","name":"Weynand Kuijpers","rank":4,"memberships":[{"id":"foundation","title":"foundation","path":"/people/memberships/foundation/"},{"id":"tech","title":"tech","path":"/people/memberships/tech/"},{"id":"cofounders","title":"cofounders","path":"/people/memberships/cofounders/"}],"bio":"Weynand is a rocket scientist that loves slingshotting new technologies into customer-centric orbits. He has been working with teams at the start of the internet and spent the celebration of the year 2000 sitting in a datacenter.  Nothing happened there and then but in the following years he developed a growing interest to help, optimise and simplify the world of IT. First follower, team player and very passionate about bringing equal opportunities to young talent around the world. For Weynand, the Internet is where the next generation will expand their minds and innovate. He experienced this first-hand when his son outsmarted him by learning online how to boil an egg in a microwave. Such learning ability should be available globally, sustainably and efficiently.","excerpt":"An international entrepreneur and part of a diverse team of innovators.","linkedin":"https://www.linkedin.com/in/weynandkuijpers/","websites":"https://threefold.io/, https://www.mazraa.io/","countries":["UAE","Spain"],"cities":["Dubai","Madrid"],"private":0,"image":{"type":"image","mimeType":"image/jpeg","src":"/assets/static/weynand_kuijpers.36a08ae.d8e76ae7d9882036b8eca071084e910f.jpeg","size":{"width":640,"height":640},"sizes":"(max-width: 640px) 100vw, 640px","srcset":["/assets/static/weynand_kuijpers.36a08ae.d8e76ae7d9882036b8eca071084e910f.jpeg 640w"],"dataUri":"data:image/svg+xml,%3csvg fill='none' viewBox='0 0 640 640' xmlns='http://www.w3.org/2000/svg' xmlns:xlink='http://www.w3.org/1999/xlink'%3e%3cdefs%3e%3cfilter id='__svg-blur-7cee1cbcc344d011693c6568612405a7'%3e%3cfeGaussianBlur in='SourceGraphic' stdDeviation='40'/%3e%3c/filter%3e%3c/defs%3e%3cimage x='0' y='0' filter='url(%23__svg-blur-7cee1cbcc344d011693c6568612405a7)' width='640' height='640' xlink:href='data:image/jpeg%3bbase64%2c/9j/2wBDAAYEBQYFBAYGBQYHBwYIChAKCgkJChQODwwQFxQYGBcUFhYaHSUfGhsjHBYWICwgIyYnKSopGR8tMC0oMCUoKSj/2wBDAQcHBwoIChMKChMoGhYaKCgoKCgoKCgoKCgoKCgoKCgoKCgoKCgoKCgoKCgoKCgoKCgoKCgoKCgoKCgoKCgoKCj/wAARCABAAEADASIAAhEBAxEB/8QAHAAAAgEFAQAAAAAAAAAAAAAABgcFAAEDBAgC/8QAMxAAAgEDAwMCBAQFBQAAAAAAAQIDAAQRBRIhBjFBB1ETImFxFDKRoRUjJVLBYnKBsdH/xAAZAQEBAQEBAQAAAAAAAAAAAAAEBQIDAQb/xAAgEQACAgIDAAMBAAAAAAAAAAAAAQIRAwQSITETIkFR/9oADAMBAAIRAxEAPwDobB96rn3rNj7VW3jsKxR7ZBdT6tbdP6VLf3SO8aYG2MDJJP1pH9T%2bpHVeqXzL04senWarjGxZZG%2bpY8Dt2H70yfUu5k1OWLQbUBSSJZ3ZfyL4I%2bveh%2bw0e3t0KW8SrjuzYyfqTR8uTg6G62u8yu%2bhZDqP1De0ZLjWruON/l3Kqhwp7/MBnNRek3nUPTl4b7SdRmt5DzIkpaWOU55LK2eT703b7TmyVCbgO3FCWraeUYsqkL5B8Ud7DT8HLQhXoc%2bmfqRH1PIdN1aFLPWFBKhD/KnA8pnsfO39KYyjBrlaTTXsr%2bG9tGKGKUOpBxsOf%2bq6P6M1U6xocFzIS0mNpJGN2PP3pMWpK0TcmNwdMM68SqWjYKcHHBrJVeRTeIGxcR2apf3MrFneRySXYs2M%2b9bRRI1IChc/6c0Mz9U2x6nvrbTI7i6Kko2Y9qxsGIJOfFbF71Le6fEZLm2jeLswTAKj3PJP7UDLB8yvrZVHGrJW7SV0JTv2OFAoU1kINwmcbz/c3JqNvvUyO%2buPwOk2lwjy7Qs067EPJDYP0xzir9QaZHPo4hu5rsTTfMptjtJxnzknFcpYX%2bnd7cF0gY1wRRKiyECJ2Clh3Uk8US%2bifVKnqK80K4cbLhPxFuc4%2bYABl/zSl1Pp24tNWvUS%2bvJIltkniSWQsQxY8HP%2b396x6dNP0l1PpGoXDFZ45VlKpyGUY3D/AJUkfeumKo9WH2IyncqO2vi1W/PFYd1VuqrRE5AJr2nR6T1RfXz7YbHVI0Z3yFVbhMggnwWUgg%2b4aobXW0s2LS/GjM5jKRRRsGeViMBVUdyTjn9aZGqhZrGWOVFdGGGVgGBH1BoLuYLGxuY1s7S1gGC8jRxqpI8KCPc0DZThK/6VtFRyx%2by7QtestIazstMjtnVZrFEEZP5QygZyfY85/WiCz1iZtHj/AKTfEleQiKyj7PnBFbXVty97aIkNvEAOcE8kea0untRjtohC6lUbJb2xn/FEb/GU/pJpg3rNu9zHPe3ESwTMFiWMNuKIuSMnySSTxxQT1FAZOrNEnuDutRbnK5yFAB3Hj7imV1Shgd42PyMeDSk0PU7fUOtNJ/j85bTxcmCbdgBYt3bjwa3gVyOG21GFHZnxz7VY3B9q0fi/WrNLxxV/ij5iz1fzzmBhbKjOeBuOAKFdTtpZblUJjE3G/nKrgfr54pbeq3qdf2urS6N09MIUjXEt0n52fnKqfAHbI5pfdB9aTaPrbNfzyy2d5InxmdiSjMOJOfY9/pRdrB8kevUP0szxPvxj0vnit2CM0ayj2hORnv4IqHt4Nk8lzO7iNhtCPwCPoKnLnVYDCFadCCM7wQQaEdanmnhZIpWKDgOR2H/tSGn4y78i49GDqm9S6lijt237Qq7h7gcn96B16ThlZ57dNkockHAbn7HIostLbYoY5PHc1JWUaw2%2bW7EljmsRbXhqaVLkj//Z' /%3e%3c/svg%3e"}}}]}},"allMembership":{"edges":[{"node":{"id":"aci","title":"aci","path":"/people/memberships/aci/"}},{"node":{"id":"foundation","title":"foundation","path":"/people/memberships/foundation/"}},{"node":{"id":"tech","title":"tech","path":"/people/memberships/tech/"}}]}},"context":{}}