{"hash":"96e6b159508a90b844aac8108e3423e09c9a7b6a","data":{"membership":{"title":"cloud","path":"/people/memberships/cloud/","belongsTo":{"totalCount":16,"pageInfo":{"totalPages":2,"currentPage":2},"edges":[{"node":{"path":"/people/kyn_chaturvedi/","content":"\n","name":"Kyn Chaturvedi","rank":2,"memberships":[{"id":"cloud","title":"cloud","path":"/people/memberships/cloud/"}],"bio":"VP of Global solutions engineering, my goal is to increase blockchain usability, through scalability solutions that aim to simplify the integration of blockchain into real world applications.","excerpt":"VP of Global solutions engineering, my goal is to increase blockchain usability.","linkedin":"https://www.linkedin.com/in/kynchaturvedi/","websites":"https://tomochain.com/","countries":["Vietnam"],"cities":["Hoi Chi Minh"],"private":0,"image":{"type":"image","mimeType":"image/jpeg","src":"/assets/static/kyn_chaturvedi.36a08ae.dfdda99770f40137d398084defab6ee6.jpg","size":{"width":640,"height":640},"sizes":"(max-width: 640px) 100vw, 640px","srcset":["/assets/static/kyn_chaturvedi.36a08ae.dfdda99770f40137d398084defab6ee6.jpg 640w"],"dataUri":"data:image/svg+xml,%3csvg fill='none' viewBox='0 0 640 640' xmlns='http://www.w3.org/2000/svg' xmlns:xlink='http://www.w3.org/1999/xlink'%3e%3cdefs%3e%3cfilter id='__svg-blur-120b6a1ec4896d2602b1642834adfdaa'%3e%3cfeGaussianBlur in='SourceGraphic' stdDeviation='40'/%3e%3c/filter%3e%3c/defs%3e%3cimage x='0' y='0' filter='url(%23__svg-blur-120b6a1ec4896d2602b1642834adfdaa)' width='640' height='640' xlink:href='data:image/jpeg%3bbase64%2c/9j/2wBDAAYEBQYFBAYGBQYHBwYIChAKCgkJChQODwwQFxQYGBcUFhYaHSUfGhsjHBYWICwgIyYnKSopGR8tMC0oMCUoKSj/2wBDAQcHBwoIChMKChMoGhYaKCgoKCgoKCgoKCgoKCgoKCgoKCgoKCgoKCgoKCgoKCgoKCgoKCgoKCgoKCgoKCgoKCj/wAARCABAAEADASIAAhEBAxEB/8QAHAAAAgIDAQEAAAAAAAAAAAAABQcEBgIDCAAB/8QANBAAAQMDAgQEAwYHAAAAAAAAAQIDBAAFERIhBjFBURMiYYEHFHEIMlKRocEVFiNCQ7Hx/8QAGQEAAgMBAAAAAAAAAAAAAAAAAwQAAQIF/8QAHREAAgMAAwEBAAAAAAAAAAAAAAECAxESITEiUf/aAAwDAQACEQMRAD8A6Zsbem2ME5KlJySedEKGxnloisoSBskVjJee8oCiO%2bKyvCvApWK1pQnUtQSO5OK1QyTHBUcnua52%2b0Ddpl7Uq12u3ypym30uofZJLelIxpxjCgScn1HWrbwvt%2bDymcW2iC443NlJYcTulCt1OJxkKSBkkbH8qkWm%2b2y%2bQGplonR5cV37rjSwoE9Qex9DXAZvF%2bgKSZj8xC1tFrDmcqb5aTnmNuR%2blE%2bC/iRebAm5iBL%2bTfnKQpx1DadyM74xgHff0x2qaTGd2ThhhRqgcayRHsU9xKQpIZVkH6Uvfh58YLpPQWOI5MF%2bPyL2NLifNp3I8p5g47Z7Vb%2bM5kZzhaa94iXI5bOpTagdselEr8YpenyQyk3NhKUjw1Egdq2rucdTBPhnVjqOXvS04lu89q9tIjuhqGAS64rAAA6k1Avl2dZssmaiS9MZIGENpASoDcgH8RHLlSULnJaPKtvwNce8fT7LElJtcRpbbDBWt15YCSd%2bX1xilvYuMWL206p0fKXDJSW3HAoH1SR0qHxIbjxdrS5ESzCcAdKfEJONsBah0G2yfcmoI4PtUC3IakzwohOpLaWwSlR5kKG4HvWpWIappxd%2bi%2b4/koXdS67v4WUq261Ul/IPZLyFeIpJ0lJxg/vVj4zhNxnXNUh91KkgAueYDHLfn/uqStWpYOrcYwOgA6USuSkugF0HCWMOrlKjR0ohuuMMEgFCk5JPUnv%2blXbg2%2bplOOWeZILEOUrwyoKyASnGPfGcnkaV7L2HwSdek59PeiMOeyiUlxxJDqD5MHAwOhrTX4CePpnV99jLu9wditLS5DkNFIWnfc8j7HFLaBYpsRQjG7hERo4cyvxN87gZO3vRW22q4qYbkWpbj8VxGpDEpelSyBulChg5zkcqCWjh633KO/MXBnW9pxZKWTIUVAds9s5wP1pGEEkkPV/O8WWubJEVhLcfYAY8vKg6nUqyV7n1r668lH9L%2b1Owyd6iuSEaSlIxnmT1oc1rGoSxFX4tDT7bjLaQpShknGcZ5UvnLQYusSUK1Y8gxz/5TJukcNuJeRu2Fa1jqaGSmIepciY5IdeX5g23laUp7AdK3CbisQOVaseyKjeLM3Fs3zCgnWEtrBHXUrGPXv7VXRzTnYjrmjHFl5duMhDKGlMQ2fuI6k8sn9h0oOEB5CdJOqnKk1H6EL3Fz%2bfBw2kcRTosm721Dq7ZbwXSEqypZTgkJA3wOZPoahfz/If/AMmSvckdaanw9nxrBdY0KEtfy6wUkKOcnv8ArWz4ncKcC3OW2rwTabs8rBeggJQsnqtv7p%2bowfWhutRibdr5dimVxQlwZcO/esP482s7HNQeI7Cvh27mE6%2b1LaI1NvIBGoeoPI1GDKRgpAxS7ihmMm0WOPMEgAZ2POvKiZ8VKTpJThJ7dqGQF6CKN%2bLqTkEZxQW8Dw7QpLwwti4uodSU5V32qG2Sh0YPX8xVz4jt6pTxUjGfWiXwxsds%2bdem3ZMCeY6wkQ3FnUD%2bMpOAR%2bddGFicDmW1tTw//9k=' /%3e%3c/svg%3e"}}},{"node":{"path":"/people/mariza_wellesley_wesley/","content":"<BR>\n<iframe src=\"https://player.vimeo.com/video/413196271\" width=\"800\" height=\"450\" frameborder=\"0\" allow=\"autoplay; fullscreen\" allowfullscreen></iframe>\n<BR>\n","name":"Mariza Wellesley-Wesley","rank":5,"memberships":[{"id":"aci","title":"aci","path":"/people/memberships/aci/"},{"id":"ambassadors","title":"ambassadors","path":"/people/memberships/ambassadors/"},{"id":"farmers","title":"farmers","path":"/people/memberships/farmers/"},{"id":"cloud","title":"cloud","path":"/people/memberships/cloud/"}],"bio":"For me, ThreeFold is both the end and the beginning of a long journey. From advocating human rights of political prisoners in East Berlin - to my mission at an international development bank of transforming society with small and big projects - to running an educational social enterprise/charity for disadvantaged children and their parents, I always strived to combine my professional work with a tangible, positive societal impact. And all the pieces of the puzzle fell harmoniously together when my journey finally led me to ThreeFold. A common, unique opportunity to transform our communities and our digital life for the better – with equality, freedom, privacy and sustainability as our core inspiration. The beginning of a new journey for each and every one of us…","excerpt":"I always strived to combine my professional work with a tangible, positive societal impact.","linkedin":"https://www.linkedin.com/in/dr-mariza-wellesley-wesley-ll-m-105aa5a7/","websites":"https://www.green-edge.net/","countries":["Austria","UK"],"cities":["Vienna","London"],"private":0,"image":{"type":"image","mimeType":"image/jpeg","src":"/assets/static/mariza_wellesley_wesley.36a08ae.e09338b23095434950ed822951495fb2.jpg","size":{"width":640,"height":640},"sizes":"(max-width: 640px) 100vw, 640px","srcset":["/assets/static/mariza_wellesley_wesley.36a08ae.e09338b23095434950ed822951495fb2.jpg 640w"],"dataUri":"data:image/svg+xml,%3csvg fill='none' viewBox='0 0 640 640' xmlns='http://www.w3.org/2000/svg' xmlns:xlink='http://www.w3.org/1999/xlink'%3e%3cdefs%3e%3cfilter id='__svg-blur-fdd08a9a323fa92d2bbbbe55f79cc902'%3e%3cfeGaussianBlur in='SourceGraphic' stdDeviation='40'/%3e%3c/filter%3e%3c/defs%3e%3cimage x='0' y='0' filter='url(%23__svg-blur-fdd08a9a323fa92d2bbbbe55f79cc902)' width='640' height='640' xlink:href='data:image/jpeg%3bbase64%2c/9j/2wBDAAYEBQYFBAYGBQYHBwYIChAKCgkJChQODwwQFxQYGBcUFhYaHSUfGhsjHBYWICwgIyYnKSopGR8tMC0oMCUoKSj/2wBDAQcHBwoIChMKChMoGhYaKCgoKCgoKCgoKCgoKCgoKCgoKCgoKCgoKCgoKCgoKCgoKCgoKCgoKCgoKCgoKCgoKCj/wAARCABAAEADASIAAhEBAxEB/8QAGwAAAwEBAQEBAAAAAAAAAAAABQYHBAIBAwj/xAAzEAABBAEDAwEHAgUFAAAAAAABAgMEEQUAEiEGMUETByJRYYGRoSNxCBQVQvAWMrHB8f/EABkBAAIDAQAAAAAAAAAAAAAAAAAEAQIDBf/EACARAAICAgMAAwEAAAAAAAAAAAECAAMREgQhMRMiQRT/2gAMAwEAAhEDEQA/ALDOguM55jqCCy5NG30lFuSAVpIF%2b5VWOfPy4rXsYxo2QlS0JceLppMVtBe9JJFoWBuKfeA5A5uu3Op/0vEecgJhJWsvuoVuUuW40r0lcKocizVGqFd70W6cxea6bmLk5ibJkxgtO3YoFKAODYrjiuw7aSfnKB17Gfgwe5YMdNTLZLnvIPfYtO1SRV8g/wDOvz97aZjk3ql5tb/6TRCEbTVIA5Cga5sn799F%2buepnem8HNzcR52HImqDTbCXAQpR7EgdqFmvnXnU1wkJ/qxlqTPkPNxkmmwCLWPKifnrVLw42EDx9jrmCXIdsrJII3AhKaomu376IYNxtDyHppbDRC7KSCoEC72/jXXVGH/0tNhTEOKfgPK9JSXOChVWO3yv7aIYOSpS/TQ/FkxXXUh1lwAEiyaCuFVz286uXGMxayk1tiPnQEOPJe/qlFCaW2yVEhZHKTfxHIOik6SzJmtwJAU6HlFSiE%2b6RVj6340W6Sxog9PMMx3GyoKWsKQsKAskmiR/59NAOvoTQjpLi1tessFt8GktuV7pUR/Zd8%2bL71rh2MXsJj1Y1XAgHpXOmW2lsww6pLe1S2kBClOWAL5G3wOeL06xc3FdWWZjwbUP0huBVuF3Xy7Dg6UsZj4sRsxWEvlx5G50okJLd3QCVDt3J%2bvfvpenKKczLeWgqDL5sklLYSADQrz/AINVdQ7kwdot/wAQOcYeymPxkMbG2EKfcSOKWrgcdrAH51t6WRBhSMcWXZKkqSApItSBxwKHz1KOuHJUzLrlyR7z6A5YNgAjgX5I7H56aegsw1MdjJmsKLjY9MLbrsNdiuvSlQIUsNyDG/r2HEjdKPJS%2b6t0zUHY8feSTd/SjpV6bhZPMzYjEWM6%2b2EAK9IDfQuyL7kV%2bR8dc%2b1POFeXhYmPFDEZlQfUu%2bVkggD6A/c6ofsTzXT%2bNgKdzEuIxLYdIaL6ylSUqB5Se1GyDoZmRMjuF6LYceYlegQv5LCRIj0lbzzbdFakBCiquFEDyNTTrbMrcY9CfuTFX7nrtKujXlJHws/nxqkZXJtJjsONrjrU9w25uCkrBH9pHF12HnU5yZ3yVtLjJdakpNBQJWF1x%2bx7i9ctRhsmS3QwIJmRm4MfbGbkOxhyjbXqEkC%2bRYUkftxoZl%2br4eEw7wbxLK/5he5CSslV%2bd3NUK%2bFkK1u6rz%2bIjF93JSZD0dBCWmWHUqEgVe7dyAR2Ca47k6hWZyruSmKecO1N%2b6gdgP87nT3E4/zfawdRZ3/ACb8zIMzc6pLaCqztbTtSLNmh45PbWjoLJMY7KsollIaeOwlXZJJoftzWhTToWhJJFayyWtrpKSflXx10Aob6y2xTDiNntIYcE1h502raUWPFHjS9GllxFEi6pST50d6myKMli8U7uCnVNH1D8FDg/kaW0oSVDjnUBMIJd3BsOPI6dMZyf6CsMw4S0/uWykgKUhwC9qSe1196I50WZ6sfVLbanNkgNhpxSTQPN768HnkfXSC4lTGxaTzYUDrp6Qh11TjyQA4d21NhI/bWVtIsG8xZtDiYcxOdmy1rdT6QBIS0m6bHwF6%2bmEwUvLh11sKRDZUlLz5FhBPYV5NAmvlqk5PpTF5yUqSt1%2bM462QFNISqnOK3AkWO4PN6ZcFgmcNgo8OO0ytDYK3nXWwS84TRI5sAcVXahqLuYta9eyXp0bBkPy0J3D5J2IpaHUpNpWBwtPg64QjdypRJPOqB7XYSW4sd87v0ni02SOeRZCvwfvqbNOkaY41osQOR3Mmz5CiC3/TXGtv6iXQ4lVD/aQQR99p%2b%2bsgVSgQflevG3bDg%2bKD/wBa%2baQVLA1uG/JE4muLEpB3qPu3ROt%2bPjSMi8iLDZU9JcNIQgWSf886NTenmXIcZ4KUXEItQHFir%2b9nTJ0Bk4eMbdhuMIZfc7uV7yh8QfI%2bWl/6FIOolqgtjascT//Z' /%3e%3c/svg%3e"}}},{"node":{"path":"/people/michael_wellesley_wesley/","content":"<BR>\n<iframe src=\"https://player.vimeo.com/video/413148180\" width=\"640\" height=\"360\" frameborder=\"0\" allow=\"autoplay; fullscreen\" allowfullscreen></iframe>\n<BR>\n","name":"Michael Wellesley-Wesley","rank":4,"memberships":[{"id":"ambassadors","title":"ambassadors","path":"/people/memberships/ambassadors/"},{"id":"farmers","title":"farmers","path":"/people/memberships/farmers/"},{"id":"aci","title":"aci","path":"/people/memberships/aci/"},{"id":"cloud","title":"cloud","path":"/people/memberships/cloud/"}],"bio":"Michael is a seasoned veteran with over 30 years of experience working in both the US and UK. He is a former CEO of public and private media and technology companies, most recently of NASDAQ quoted ChyronHego. He is Director and Founder of Inogesis, a London-based accelerator that enables blue-chip organizations to harness the power of disruptive technology. He is a Director of Conduce Technology, an innovative pioneer in the field of data visualisation based in California and also an Advisor and Venture Investor in Alpha Venture Partners, a technology-focused venture capital firm based in New York. Michael has served as Managing Director of Wit Soundview Ventures, COO of Data Broadcasting Corporation and Director of Financial News Network. He founded and served as Director of London-based boutique technology investment bank Stephen Rose and Partners. I fully support and endorse the the ThreeFold Foundation vision of a decentralised, sustainable and greener internet that provides lower cost computational power and connectivity to large groups of people who , until today, have been excluded from the benefits and possibilities inherent in the digital revolution.","excerpt":"Michael is a seasoned veteran with over 30 years of experience working in both the US and UK.","linkedin":"https://www.linkedin.com/in/michaelww/","websites":"https://green-edge.net, https://www.inogesis.com/","countries":["England","Austria","US"],"cities":["London","Vienna","New York"],"private":0,"image":{"type":"image","mimeType":"image/jpeg","src":"/assets/static/michael_wellesley_wesley.36a08ae.89a5cee663362ec2a68344d7d92363cb.jpeg","size":{"width":640,"height":640},"sizes":"(max-width: 640px) 100vw, 640px","srcset":["/assets/static/michael_wellesley_wesley.36a08ae.89a5cee663362ec2a68344d7d92363cb.jpeg 640w"],"dataUri":"data:image/svg+xml,%3csvg fill='none' viewBox='0 0 640 640' xmlns='http://www.w3.org/2000/svg' xmlns:xlink='http://www.w3.org/1999/xlink'%3e%3cdefs%3e%3cfilter id='__svg-blur-5466db9ca46c0e66c6409d2d9378bfde'%3e%3cfeGaussianBlur in='SourceGraphic' stdDeviation='40'/%3e%3c/filter%3e%3c/defs%3e%3cimage x='0' y='0' filter='url(%23__svg-blur-5466db9ca46c0e66c6409d2d9378bfde)' width='640' height='640' xlink:href='data:image/jpeg%3bbase64%2c/9j/2wBDAAYEBQYFBAYGBQYHBwYIChAKCgkJChQODwwQFxQYGBcUFhYaHSUfGhsjHBYWICwgIyYnKSopGR8tMC0oMCUoKSj/2wBDAQcHBwoIChMKChMoGhYaKCgoKCgoKCgoKCgoKCgoKCgoKCgoKCgoKCgoKCgoKCgoKCgoKCgoKCgoKCgoKCgoKCj/wAARCABAAEADASIAAhEBAxEB/8QAGgAAAwEBAQEAAAAAAAAAAAAABQYHBAMIAv/EADcQAAIBAwIEBAQDBgcAAAAAAAECAwQFEQAhBhIxQRMiUXEHFIGRYXKxFSMkNIKhMlJiwdHh8P/EABoBAAIDAQEAAAAAAAAAAAAAAAMEAAIFAQb/xAAjEQACAgEFAAEFAAAAAAAAAAABAgADEQQSITFR8AUTIjJh/9oADAMBAAIRAxEAPwBwuFNRzXj5WKgL1FTUcwmplwhVE6b%2b%2bT%2bO%2bitjtVwht5haOKKiJEiyseYqCdxg%2bv8AvrPdbPPRSUz0xcVKzeBE0jkE526duu%2bRo/xEK%2bzEVS0LlPBCNLEQREyr1x6a8xZpxYpLDkedfPmYDo5mOvhaCmkjeACB8RePFUBmX0Zs7D01xtFzqaimnprojNSUwVHeNhJIznoNjk%2buffX1Ldaia50dFStLIsqqlXMIVAY8uSe4zjIzo41KlvbyLTwwsAfDhhXmX8ScZY%2b%2bh6XQ/eBbPEKlZc/jOvjI/g/KVkUsEJVieQly%2bNt%2bmOum%2b6rzUhH4j9dLEc0cdEKqVFWoimzIEGEfpvj0IIOOx003D%2bVP0/XWx9PpNLWKf5LHwzHQJhZ/fS8Uwx9z%2bmmaiG035tAWXc/XWkZzE2cVUkT0tIEgDztUxhcEBjg5PvsDrPxRDdKm2o1EziZZWDxqM8652GO/10SvJia5WxZHIaJpJxgZIwhXOP69LlTWcRV0dTDQRNTgsVFVK3KvL6qCN/tpa5QoPBOfJRvIBtc1PQ3aSkZWNfC5aXmGAzMhPKFOMb46ZHpoRxAtctJeUu3EEjRzBEhjgiKNThjnGVHXG2%2b%2bmGLg%2btrK/wDaFwqaVqvyhpASzMF2AO3p6aF8YfIWOJ4K1Wq6iphRvFQYHNk4BJzjYd9yBpPSV2VblZSFzmM6Q87TN/w3hjexGmpah6mmVRG3zJ5jzAnG5/8AbDVKuH8oc9dtSj4a3qGW7UtvWALHJmYnsrpjH3zqr3E/wbkeg/XT1S9v7JcMORM9A2XqFwdm6%2bugzdT7nRqgO8v5jpekmAZt%2b50UmCxMfCXFQvtvpapGSR3QhgGHOpBwfocaYkLSHPO4/MMHXlG60tdQXOeqtdwnoZucyNDG5xzE75XOOp7DVH%2bFPH0tymktd7qJVuca8w8RuaKVR3BG6kdwcjRktSw8cQ1uketd3Ylr5MDzDH4jQyssFtrmnknpYZZJlCSMRu4HQH1x29NdY6rkUMwkjU7hh50PsRrsZElXmVo3P%2bnromDFQYtUvCduopYxBHJyxEFFJUBTkMCMYOx9SdHRV%2bE5SqaUk%2bo8p%2b2uBjqzNIWOISfKshDaF3iNWpZ1U%2bDVKhdDGxBON%2bntnUCjqQsScmMEdzp6dVIOTIObJOw0He42ZTKZnA5TuwlyN9K3GVdNDwrDX0mf4dwHCbnkbofvj76jV4vMxmaczbcuGHQtpG5ijbcTV0mkW9N5M48SQ1ltuD01TKFlBJDcuRIp6Nn7j6aEW27Gz36gupIPy8mZQBuyHZh9tN0MlNxlaooa6tda5FDQSyRgSISBs3L1U5Hbv66m/EFNVWqskoq%2bMrMN9t1YeoPcaqo2nIjVdy217G7nr2yz%2bJTx1FtqA0cih%2bRdwQe/L3/sdH6eaKVf38IRv8w3X/r66i3wPvLV/A8Ec6uz0M7U3ixnzIowVJ9Rg/21WKa5K8WBNHMw7r1%2b2tP9hkTBddrEQlVxQyRhCUIJ/wALjIOg8lNTLKYfDSBG2YwrjWatr2IZUXzDcIw6/iP%2bNTr4xcfDha0JSWqaVK6ri51m2JhG3TP9XtjbXdpAzKDkwpxHxDYLHQXC03e507JKjxGKNzIVGfL0AAYbH6ahwgSsuyQTVcCwlA/OsgImBO3KfvnuPfU4uFwlquZ5XJdvM2Tk5Ou3CcE11vlBao6pqZqmcKkoUvyN220taqtgnsRui96wUXoz/9k=' /%3e%3c/svg%3e"}}},{"node":{"path":"/people/richard_chen/","content":"\n","name":"Richard Chen","rank":2,"memberships":[{"id":"cloud","title":"cloud","path":"/people/memberships/cloud/"}],"bio":"Build the best DeFi blockchain that is stable, payable, issuable, tradable, borrowable and savable!","excerpt":"Co-founder and CTO at WaykiChain","linkedin":"https://www.linkedin.com/in/richardchenxd/","websites":"https://www.waykichain.com/","countries":["Hong Kong"],"cities":[],"private":0,"image":{"type":"image","mimeType":"image/jpeg","src":"/assets/static/richard_chen.dc52710.25721383f907da0551e8cc2d9518dad5.jpg","size":{"width":200,"height":200},"sizes":"(max-width: 200px) 100vw, 200px","srcset":["/assets/static/richard_chen.dc52710.25721383f907da0551e8cc2d9518dad5.jpg 200w"],"dataUri":"data:image/svg+xml,%3csvg fill='none' viewBox='0 0 200 200' xmlns='http://www.w3.org/2000/svg' xmlns:xlink='http://www.w3.org/1999/xlink'%3e%3cdefs%3e%3cfilter id='__svg-blur-cb0f0c38fca71c538d96fc70c8b80759'%3e%3cfeGaussianBlur in='SourceGraphic' stdDeviation='40'/%3e%3c/filter%3e%3c/defs%3e%3cimage x='0' y='0' filter='url(%23__svg-blur-cb0f0c38fca71c538d96fc70c8b80759)' width='200' height='200' xlink:href='data:image/jpeg%3bbase64%2c/9j/2wBDAAYEBQYFBAYGBQYHBwYIChAKCgkJChQODwwQFxQYGBcUFhYaHSUfGhsjHBYWICwgIyYnKSopGR8tMC0oMCUoKSj/2wBDAQcHBwoIChMKChMoGhYaKCgoKCgoKCgoKCgoKCgoKCgoKCgoKCgoKCgoKCgoKCgoKCgoKCgoKCgoKCgoKCgoKCj/wAARCABAAEADASIAAhEBAxEB/8QAHAAAAAcBAQAAAAAAAAAAAAAAAgMEBQYHCAEA/8QAMBAAAgEEAQIEBQQBBQAAAAAAAQIDAAQFESEGEjFBUWEHEyJxgRUjMqEIFEJSYrH/xAAZAQADAQEBAAAAAAAAAAAAAAACAwQBBQD/xAAjEQACAgICAQQDAAAAAAAAAAABAgAREiEDBAUiMTJxQmGh/9oADAMBAAIRAxEAPwDMoHNd7aGFrrDgDuC78z5VPdmU1W4Q8iR8Hk%2bgoAuk3yrU9wdK5C7RHggdhKven0E7X1oVx0H1FCoZsZcaPI%2bk%2bFFkg9zMw5TsLGmGRJP4nn0NHhKTZHEZDF9pvrWWDZ0C41zSixl%2bfGe7%2bSnRoXArIHUJLvFhRgwlC7PajglCCUnKOCRGBxS7CYps1ncbj0GzPOqHy48/63SULVmfAjpps31hDeMV/wBNYt%2b8p8w6OB/YrS2O5ipkammekrjphljt7C4xzyxp2iNHXuAHHh46p%2byf6fBAXme2iUcbdgv/ALULg6Intb2J2mslsI%2bQiWcaMG3wVdfqHGhzulXWOCfNXTxQx2U7xxbWG8jLoW1wSARvnVIuhVSrEE3crj434%2bzy3SV81kIZpIh3q0RDaIPt7VmTDKfmTD0ArVN10dPhMPfXFxBZ2ztGQUtgyI41/wACTrndZ3j6ayGOxaZO6iC290wKa50Odb9N0fG4VGWBy8ZZ1YRIq0Ps0OaGq0MJ6%2blLJhBY2AVYvwR6iXA9VtBK/ZFkYxB3a4WQMChP9j81XoFGxlkZWRirKdgjxBpjbFRS6NzZ2Tz0NvHBBNkzaXTkMrNAZEP/AFI15/cGmTHdSSp1Cf1TMYt7mQkLHaxsGJPhyfL8UyfCvruzzeA%2bRmbk295AwSRu7t%2bZxwwPrUkyOXxNnHJLZ3Qmk7dAue9vts0iWArUQdcZSa5spVkcGPWt1S3xBzFpJbQYfFyJJAj/AD5mjO07yOFH25J9zUzzdxeZi3nhhR3LqY40UbLM3AH35qo8zi7jDZa7xt6oW5tJDFIB4bHp7eBrACdzzNXpEQqtGBeDXlFGAeNYTBAjPEe5Fb1ANGge1NcpKyusbHtBIHPlXQX7dliT6brsv0K/L%2bTlr2/1Lh%2bCeBXOvn1DFjbQQyGIeYLkb%2b41/ZqdWvRzzXIt8YZ7l2bQVzyPXfsPWoz8A7e4w3Q/Umet55YJ72eDGxSR62vPczDYPP1a3V09FdRInVBx8ujJdxE6jjACMo3s69efzqlHoE7Bhr5DHRH1Ftlg8T0J03cZnNMhNnCZXceCceC%2brHwB96xjn%2boLvN9VZPNXK8307SvGP9g8FA%2bw0PxV5/5R9bG5vrfpOwl/agK3F6Qf5SEbRPwD3H3I9Kz1pgwjKoBve98mqk6q4Y1qTHnYvmTuPEEscuuxtn086Uqp1UdkQGT6DojzFcMkitr5rAfc1KfFgt8qH1cqXyFDa7n/2Q==' /%3e%3c/svg%3e"}}},{"node":{"path":"/people/sascha_jochum/","content":"\n","name":"Sascha Jochum","rank":4,"memberships":[{"id":"cloud","title":"cloud","path":"/people/memberships/cloud/"}],"bio":"Co-founder DASH Next","excerpt":"Entrepreneur, Investor, Blockchain Expert","linkedin":"https://www.linkedin.com/in/sascha-jochum/","websites":"https://dashnext.org/","countries":["Thailand"],"cities":["Bangkok City"],"private":0,"image":{"type":"image","mimeType":"image/jpeg","src":"/assets/static/sascha_jochum.fbd8190.016e087831e74f6149b84967fd489ccd.jpg","size":{"width":630,"height":630},"sizes":"(max-width: 630px) 100vw, 630px","srcset":["/assets/static/sascha_jochum.fbd8190.016e087831e74f6149b84967fd489ccd.jpg 630w"],"dataUri":"data:image/svg+xml,%3csvg fill='none' viewBox='0 0 630 630' xmlns='http://www.w3.org/2000/svg' xmlns:xlink='http://www.w3.org/1999/xlink'%3e%3cdefs%3e%3cfilter id='__svg-blur-0029bb20fc0b0e4298d541fd6bab7eb0'%3e%3cfeGaussianBlur in='SourceGraphic' stdDeviation='40'/%3e%3c/filter%3e%3c/defs%3e%3cimage x='0' y='0' filter='url(%23__svg-blur-0029bb20fc0b0e4298d541fd6bab7eb0)' width='630' height='630' xlink:href='data:image/jpeg%3bbase64%2c/9j/2wBDAAYEBQYFBAYGBQYHBwYIChAKCgkJChQODwwQFxQYGBcUFhYaHSUfGhsjHBYWICwgIyYnKSopGR8tMC0oMCUoKSj/2wBDAQcHBwoIChMKChMoGhYaKCgoKCgoKCgoKCgoKCgoKCgoKCgoKCgoKCgoKCgoKCgoKCgoKCgoKCgoKCgoKCgoKCj/wAARCABAAEADASIAAhEBAxEB/8QAHAAAAgIDAQEAAAAAAAAAAAAABgcDBAABBQII/8QALhAAAQMDAgUDAwUBAQAAAAAAAQIDBAAFEQYSByExQVETYXEUMoEiJVKRoUKx/8QAGQEAAgMBAAAAAAAAAAAAAAAAAQQAAgUD/8QAHhEAAgMAAgMBAAAAAAAAAAAAAAIBAxEEEiEiQRP/2gAMAwEAAhEDEQA/AGkK3XgGt5rsAhnSW4cV195WG2xkmlndeJ8di8SWYmZCG2glMdDZUv1M5J5dsYHzRZxBlLjabdLABfcdbbbSehUVDH4HU%2bwqXQOl7ZbI4RHjNqdWMuvlP63VHqSfHt0FL3W9PEDFFP6eRYQuI9ylXCM84483hTgMIthHqEDkCcePjmKY%2bm9ZWu%2bOmO06pian74z36Vj47H8UY3nSFsnw1tzYDLqF/wAkf%2bePmkRxI0sNOT7fNdkOyrO056akurIcZz9uFjmR81RLp3JOlnHiI2B2pNbJqrAIMRnCy4NicLPVXLrVmmxMysqPNbzUAAvEC7Rf21ZW47GZddW56LZWoKQnHQdxk/3RNprU9kajMMuyVMPJA3eqnbj58fmhnVcJuXeIbQC20SEL3jG0Ajln3Jz18Yognabit2ttyRbre6vaBvCwnwMqJGR0Hes5m7trGtXX0jFkYr10iSrelcN9DgA%2b5Jyk/mlRxLjJuv01rkpUW57yGcDxkEkHzgGqUrSUWM5ERGW%2b04/DX60qMnd6jpXkKI5jpnHKuJbba9FvsSJFuSnX25LagpI3bWwCV7gTgE8hkDvy6UYiGaJ0q%2bokxg0YrLcdhtloYbbSEJGc4AGBUua8A1hNaBlkO%2bs31ULtYHB5qEBzVr7cG82l9aB6TxW0oj%2beAR/YBruLekOtFkxo863vD/t4JUoZzhQUMH4zQlxYiuy7DE%2bnUUvpkhTZT1BCFHlQxpbikzCtyLfqOA4463%2bn1QjcFe5HXNJWr77BocezFiGDqzyrbp%2b9PphQ7giS63tLS2llIA6YxlIHvnFSacL1zvs%2b8PshDKsNsEjqB1I/3/KW181su8r%2bk09Gejx3Th1ZGCR8Dt805I7bcSM2w0kIbbSEpSOwFGlNbZ%2bA5N3r1X6Xd9Zvqp6oNekuU4IAvddV2e1ulqdcWG3QN3pg7lY%2bBS31XxPkyWnI9haVGQrl9Qvm5%2bB0H%2b0uyk9wc9z3qMpOarpbBs6KdXddMxbkp9yXOiOrEkOLK1kfnttPL4rvtWmGjd9Vb25TSuaCUfbnpk%2bKStivM/T076y2O7FEbVoI3JWPCk9xTCt3FxpuKy1NtKi4hISVMugBQHsRSj1N22B2u5esQwVuQGkQXlMR22yobGw2nAzXK4iX%2bbpdy1m3zXVyXsrejuq3oKBgDkeYyeWQexrkT%2bLaVq/brQ2lYGEl93dtPnAAFLq83OXe7g7OuEj1JDh5kDAA7ADsBRqqZW2SX2oy9YHTZeJVkmsZmOqgPjG5DoynPsodvnFFNovtvuyVqtsxiSEfd6aslPyK%2bYUNgHOTV22zJVulpkW%2bS7HfHIKbOOXg%2bR7U1olh/9k=' /%3e%3c/svg%3e"}}},{"node":{"path":"/people/tom_clausen/","content":"\n","name":"Tom Clausen","rank":1,"memberships":[{"id":"cloud","title":"cloud","path":"/people/memberships/cloud/"}],"bio":"FIDES BUSINESS PARTNER, based in Zurich, is a private equity manager focused on special situations leveraging our extensive operational, entrepreneurial, restructuring and investment expertise.","excerpt":"Head of Business Development & Director at Flowgen technology","linkedin":"https://www.linkedin.com/in/tom-clausen-72b984/","websites":"https://www.flowgen.com/","countries":["Switzerland"],"cities":["Zurich"],"private":0,"image":{"type":"image","mimeType":"image/jpeg","src":"/assets/static/tom_clausen.dc52710.fbd319f0e3b306809838f5d994bee963.jpeg","size":{"width":200,"height":200},"sizes":"(max-width: 200px) 100vw, 200px","srcset":["/assets/static/tom_clausen.dc52710.fbd319f0e3b306809838f5d994bee963.jpeg 200w"],"dataUri":"data:image/svg+xml,%3csvg fill='none' viewBox='0 0 200 200' xmlns='http://www.w3.org/2000/svg' xmlns:xlink='http://www.w3.org/1999/xlink'%3e%3cdefs%3e%3cfilter id='__svg-blur-f413dd5696796963ad355f6c8b3bb4c4'%3e%3cfeGaussianBlur in='SourceGraphic' stdDeviation='40'/%3e%3c/filter%3e%3c/defs%3e%3cimage x='0' y='0' filter='url(%23__svg-blur-f413dd5696796963ad355f6c8b3bb4c4)' width='200' height='200' xlink:href='data:image/jpeg%3bbase64%2c/9j/2wBDAAYEBQYFBAYGBQYHBwYIChAKCgkJChQODwwQFxQYGBcUFhYaHSUfGhsjHBYWICwgIyYnKSopGR8tMC0oMCUoKSj/2wBDAQcHBwoIChMKChMoGhYaKCgoKCgoKCgoKCgoKCgoKCgoKCgoKCgoKCgoKCgoKCgoKCgoKCgoKCgoKCgoKCgoKCj/wAARCABAAEADASIAAhEBAxEB/8QAHAAAAgMBAQEBAAAAAAAAAAAABgcEBQgDAQAC/8QAMhAAAgEEAAQEBAYBBQAAAAAAAQIDAAQFEQYSITEHE0FRImFxgQgUMpGhwVIzYnLR4f/EABkBAQACAwAAAAAAAAAAAAAAAAUCAwABBP/EAB8RAAICAgMBAQEAAAAAAAAAAAABAhEDIQQSMTITIv/aAAwDAQACEQMRAD8A09qvD0GzX71Qt4kX1xY8My/km5bidxEp9ge/8VtutmkrdAlx/wAfpZXEmPsfMkm6qVQbLH26UhuIJ8g%2bQWW58xLmQ75XJJ1TLx9kluebQeZv1SEdTUmexgm6zRKx13I3R8%2bRbEsfEdbFImWvYSojLu6nmGmI0femZ4X%2bIlyHa2yeRWZVIHkTtpl/4nv%2b9V95hrRJTKIhzDtqhLivAx3aie0Hk3kR5lZem9ehrIchJ7MycR1o1hbzx3Nuk0LBo3GwRXzUpvAPiae9x02Gv9meAGWJiepXeiv2pstXenasNkq0XFAHim8nPjYwT5REjEb6EjQ/uj%2blr4tTvHcWvlLzuts5VD22XA/qo5PllmH7QJQa3UtlTlGvWgIZ2%2bsL2NHvI7lJH5ORrcgb9QGFF0eRje1M8kXJHrZO%2blGOFbY1GalpEXJMiggDZ%2bQoWvH0Sx6V0zXFTibyrW0iCsejzzqgP0HeqY309yzw3UMaMV2rRPzKR9feofm/STyrwKfBGIt4gyyKx5BbyNr07f8AtaCes3/h5vkPH9zBKWBNpIkZ9GYMCf4BrR70ri1GgLL9NlxvpS48TAHycHqRAB9uYmmJugbxU%2bCxsJQB/qshbXXqvatZvhk%2bO6yIXc1rCU5pVXr0HwjZ%2bQqDnE1j1VgfK5viX3FRL/KLHJMbhvLRPhBIOlBH6j9arslHcTRI4upBGmjGA518zqj%2bjkhnsl4iZLjbe8sY3McbMhLK/pvWt/WqK7t4rOAQwAbHb5VOw18qQfl0YMu9HR3s991V5edRM/XRANR/q0mZJwUW16Ff4eMQycQXt3Jo%2bRHJynX%2bZA/7/an45oV8MsDBhOFrV0kaWa7ijmkdhrW12FA9hs0UOe9J4otR2C8ialPXiFLnPxG8PWjumJxl/kCOgkcrCh/fZ/igDibx%2bu89AtnJgrWC08xXZhMzyLo9x2G/tSN5t16CPXtVjVqmVptO0aJxt9BkYDOjJLFKg0R1BFRb%2bApC0ESskRGuVJCBr216V04Pw72Xhfw9fwxgSzebJISO4ZyV39h0%2btcMrmmaIpFbESDp8XauCeNwlSFcGZShciNFc2%2bHtHkKIvIpUD/cf7oYxy3Gcy6BASrOEAHrs10ixt/nMikISRlLaVVGz89D3plphrLgjhu8v7kx/mooGYkdRENfpB9WJ0N1LHhc2VZM3VdmGnhHxpacTYWXHs8SZbEsba4iXoGVSVWRR/iQB9Dse1HDmsEcMcS5PhziCPM4qfyr1GYkkbVw36lYeoPtWkeBfHPFZkxWvEUS4u7bQEyktAx%2bZ7p99j512oOP/9k=' /%3e%3c/svg%3e"}}}]}},"allMembership":{"edges":[{"node":{"id":"aci","title":"aci","path":"/people/memberships/aci/"}},{"node":{"id":"foundation","title":"foundation","path":"/people/memberships/foundation/"}},{"node":{"id":"tech","title":"tech","path":"/people/memberships/tech/"}}]}},"context":{}}