{"hash":"c59fd003259fef753befdbe2cca8734b205a5819","data":{"entries":{"totalCount":51,"pageInfo":{"totalPages":6,"currentPage":6},"edges":[{"node":{"path":"/people/ahmed_siddique/","content":"\n","excerpt":"A hardworking individual and a casual guy who loves to explore new ideas in Tech.","name":"Ahmed Siddique","rank":1,"bio":"A hardworking individual and a casual guy who loves to explore new ideas in Tech. Experience in Telecom/IT, Networks, Cloud and  Systems Engineering and Servers Administration. I enjoy learning new things as Learning never exhausts the mind. I have not yet come accross an organization who are rebuilding the entire ecosystem of how things work in Tech. ThreeFold is going to be huge and i want to make sure i was part of this great movement.","linkedin":"https://www.linkedin.com/in/ahmed-siddique-a4126a98/","websites":"https://threefold.io/, https://www.mazraa.io/","countries":["UAE"],"cities":["Dubai"],"image":{"type":"image","mimeType":"image/jpeg","src":"/assets/static/ahmed_siddique.36a08ae.7ada2165288fb6e9c099f6cc1cb3d6b0.jpg","size":{"width":640,"height":640},"sizes":"(max-width: 640px) 100vw, 640px","srcset":["/assets/static/ahmed_siddique.36a08ae.7ada2165288fb6e9c099f6cc1cb3d6b0.jpg 640w"],"dataUri":"data:image/svg+xml,%3csvg fill='none' viewBox='0 0 640 640' xmlns='http://www.w3.org/2000/svg' xmlns:xlink='http://www.w3.org/1999/xlink'%3e%3cdefs%3e%3cfilter id='__svg-blur-6ac97681c14f0de596e3069969fe6c86'%3e%3cfeGaussianBlur in='SourceGraphic' stdDeviation='40'/%3e%3c/filter%3e%3c/defs%3e%3cimage x='0' y='0' filter='url(%23__svg-blur-6ac97681c14f0de596e3069969fe6c86)' width='640' height='640' xlink:href='data:image/jpeg%3bbase64%2c/9j/2wBDAAYEBQYFBAYGBQYHBwYIChAKCgkJChQODwwQFxQYGBcUFhYaHSUfGhsjHBYWICwgIyYnKSopGR8tMC0oMCUoKSj/2wBDAQcHBwoIChMKChMoGhYaKCgoKCgoKCgoKCgoKCgoKCgoKCgoKCgoKCgoKCgoKCgoKCgoKCgoKCgoKCgoKCgoKCj/wAARCABAAEADASIAAhEBAxEB/8QAGwAAAQUBAQAAAAAAAAAAAAAABwIDBAUGAQD/xAAwEAABAwMDAgQEBgMAAAAAAAABAgMEAAURBhIhMUEHE1FxFCJhkSMkYoGhsTNCUv/EABgBAQADAQAAAAAAAAAAAAAAAAECAwQA/8QAHBEAAwADAQEBAAAAAAAAAAAAAAECESExAyJB/9oADAMBAAIRAxEAPwAlxuWh70vvSIv%2bAe5paiACT0FVImxQFd6daEeqvEG5yri9b9KsLWGzsU%2b22XFE/TsPeqWNC8QpB3oXcEZ5/EeCf4NOl05JviDtXCaEUDWWpNNOpa1VAW9FJx54A3J/ccGinFlNyY7T7CgtpxIWlQ6EEZFcD10lg12mkqzSwaBGIRywPc1XasdWzpm7ONK2rTFcKT6HaanwT%2bXHuardUpfcskpuM402VgIcW6MgNk4WfsTzSgZX6OhRbfaYrEdDbIDYJGQFKOOSfWryZLjRkqMmQywAOq1gUL3NPIgznXS6lflFQDpkkqOOmOeftVtMsT5Mb418yVuNIXveRvwrHzJwBj9yKqcr9ZrinjSJmtdt40zOat7jcrCd34ZCjxzUXweujk3SxjunPwbpaQf0Ebh9skU/a9NH4tLjqnfLHKihHlJHB4HAzknpUPw1aRDZdabPClL3gdCreRn7CmGp0Q9YdfTCIg08k1FQrmnkqq3BmTGIKvy49zXncKBSoApIwQe4pmCr8sPc15xXNKRxR3e5QLJanlyvLbUcoQEoG5Z9ABWdia2bXNadnxX4DSUDatTRI9s054gPW5q52kznmArzFBTSnAFDKeFEenAqgs95bkvymbwIXwiEq8sbcFWO/wBqqqMdNkeuV0KzdyZnWxEqK4lTK0bgsdCKzOlIwaTlHLYUpQV6gk4rJafvMy5wE2i3NqTGby2X%2bwRnt6mqnUmsXrBqNtqzOBSY6fLkNrOW3D/yR2I9RzzUIn7wHrWYyGxCqfQrpWH0pry1X1tCC4mJN6Fh5QGT%2bk9Ff39K1yXhmtLRiRF%2bNYg2l2XLcDcdlKluLPYCgxq3xOuNx3sWgGBFPG8HLyh7/wCvsPvWm8YLiqLo6HEQrBlyPm%2bqUDP9lNBIqzSgZZWOMu63%2bIy4pTinXQVFZySByc569KNyNHWRyOh5VvSF9071bR%2b2elAFiS7FkIfjuKbebO5K0nBBqyuWrL7copjTLnIXHPVsEICvfAGahcunpl3lcwtoIWrtcQbNEctmmfKMo/It9oDY0PRJ7q/gUJ/MUpRUolSickk5JNMe1KzTMqQu3b2S21DvW0094gXi1MsR9yJUVtYOHhlezukKzx9OtYIKxTzbmDTkrP/Z' /%3e%3c/svg%3e"},"private":0}}]},"memberships":{"edges":[{"node":{"id":"aci","title":"aci","path":"/people/memberships/aci/"}},{"node":{"id":"foundation","title":"foundation","path":"/people/memberships/foundation/"}}]}},"context":{}}